{
  "project_info": {
    "project_number": "300380667716",
    "firebase_url": "https://estafijsfji.firebaseio.com",
    "project_id": "estafijsfji",
    "storage_bucket": "estafijsfji.appspot.com"
  },
  "client": [
    {
      "client_info": {
        "mobilesdk_app_id": "1:300380667716:android:84ef1ee1cb3b6cc7966111",
        "android_client_info": {
          "package_name": "com.genutey.fentuko"
        }
      },
      "oauth_client": [
        {
          "client_id": "300380667716-b3a1mqrmt0u4ppifoephj343spjgbdto.apps.googleusercontent.com",
          "client_type": 3
        }
      ],
      "api_key": [
        {
          "current_key": "AIzaSyCKjtBWNV30eBBuXygOHClVV0rrIvrL5Xc"
        }
      ],
      "services": {
        "appinvite_service": {
          "other_platform_oauth_client": [
            {
              "client_id": "300380667716-b3a1mqrmt0u4ppifoephj343spjgbdto.apps.googleusercontent.com",
              "client_type": 3
            }
          ]
        }
      }
    }
  ],
  "configuration_version": "1"
}